﻿<?xml version="1.0" encoding="utf-8"?>
<svg version="1.1" xmlns:xlink="http://www.w3.org/1999/xlink" width="170px" height="170px" xmlns="http://www.w3.org/2000/svg">
  <g transform="matrix(1 0 0 1 -908 -260 )">
    <path d="M 993 262  C 1039.48 262  1076 298.52  1076 345  C 1076 391.48  1039.48 428  993 428  C 946.52 428  910 391.48  910 345  C 910 298.52  946.52 262  993 262  Z " fill-rule="nonzero" fill="#ffffff" stroke="none" fill-opacity="0" />
    <path d="M 993 261.5  C 1039.76 261.5  1076.5 298.24  1076.5 345  C 1076.5 391.76  1039.76 428.5  993 428.5  C 946.24 428.5  909.5 391.76  909.5 345  C 909.5 298.24  946.24 261.5  993 261.5  Z " stroke-width="3" stroke="#ff9800" fill="none" />
  </g>
</svg>