﻿<?xml version="1.0" encoding="utf-8"?>
<svg version="1.1" xmlns:xlink="http://www.w3.org/1999/xlink" width="170px" height="170px" xmlns="http://www.w3.org/2000/svg">
  <g transform="matrix(1 0 0 1 -440 -130 )">
    <path d="M 525 132  C 571.48 132  608 168.52  608 215  C 608 261.48  571.48 298  525 298  C 478.52 298  442 261.48  442 215  C 442 168.52  478.52 132  525 132  Z " fill-rule="nonzero" fill="#ffffff" stroke="none" fill-opacity="0" />
    <path d="M 525 131.5  C 571.76 131.5  608.5 168.24  608.5 215  C 608.5 261.76  571.76 298.5  525 298.5  C 478.24 298.5  441.5 261.76  441.5 215  C 441.5 168.24  478.24 131.5  525 131.5  Z " stroke-width="3" stroke="#00bcd4" fill="none" />
  </g>
</svg>